<?xml version="1.0" encoding="UTF-8" standalone="no"?>
<svg width="20px" height="13px" viewBox="0 0 20 13" version="1.1" xmlns="http://www.w3.org/2000/svg" xmlns:xlink="http://www.w3.org/1999/xlink">
    <!-- Generator: Sketch 43.2 (39069) - http://www.bohemiancoding.com/sketch -->
    <title>Email</title>
    <desc>Created with Sketch.</desc>
    <defs></defs>
    <g id="Artboards" stroke="none" stroke-width="1" fill="none" fill-rule="evenodd">
        <g id="Screen-2" transform="translate(-461.000000, -34.000000)" fill-rule="nonzero" fill="#FFFFFF">
            <g id="Topbar">
                <g id="Email" transform="translate(461.000000, 34.000000)">
                    <path d="M20,0.573312166 C20,0.553542781 20,0.533773396 19.9901961,0.514004011 C19.9901961,0.494234626 19.9803922,0.474465241 19.9803922,0.454695856 C19.9705882,0.434926471 19.9705882,0.415157086 19.9607843,0.395387701 C19.9509804,0.375618316 19.9509804,0.35584893 19.9411765,0.336079545 C19.9313725,0.31631016 19.9215686,0.306425468 19.9117647,0.286656083 C19.9019608,0.266886698 19.8921569,0.247117313 19.872549,0.23723262 C19.8627451,0.227347928 19.8627451,0.217463235 19.8529412,0.217463235 C19.8431373,0.207578543 19.8431373,0.207578543 19.8333333,0.19769385 C19.8235294,0.177924465 19.8039216,0.168039773 19.7941176,0.15815508 C19.7843137,0.148270388 19.7647059,0.128501003 19.745098,0.11861631 C19.7254902,0.108731618 19.7156863,0.0988469251 19.6960784,0.0889622326 C19.6764706,0.0790775401 19.6568627,0.0691928476 19.6470588,0.0593081551 C19.627451,0.0494234626 19.6176471,0.0494234626 19.5980392,0.0395387701 C19.5784314,0.0296540775 19.5588235,0.0296540775 19.5392157,0.019769385 C19.5196078,0.019769385 19.5,0.00988469251 19.4901961,0.00988469251 C19.4705882,0.00988469251 19.4509804,0 19.4215686,0 L19.3921569,0 L0.598039216,0 L0.568627451,0 C0.549019608,0 0.529411765,0 0.509803922,0.00988469251 C0.490196078,0.00988469251 0.470588235,0.019769385 0.450980392,0.019769385 C0.431372549,0.019769385 0.411764706,0.0296540775 0.392156863,0.0395387701 C0.37254902,0.0494234626 0.352941176,0.0494234626 0.343137255,0.0593081551 C0.323529412,0.0691928476 0.31372549,0.0790775401 0.294117647,0.0889622326 C0.274509804,0.0988469251 0.264705882,0.108731618 0.245098039,0.11861631 C0.225490196,0.128501003 0.215686275,0.138385695 0.196078431,0.15815508 C0.176470588,0.168039773 0.166666667,0.187809158 0.156862745,0.19769385 C0.147058824,0.207578543 0.147058824,0.207578543 0.137254902,0.217463235 C0.12745098,0.227347928 0.12745098,0.23723262 0.117647059,0.23723262 C0.107843137,0.257002005 0.0980392157,0.27677139 0.0882352941,0.296540775 C0.0784313725,0.31631016 0.068627451,0.326194853 0.0588235294,0.345964238 C0.0490196078,0.365733623 0.0392156863,0.385503008 0.0392156863,0.405272393 C0.0294117647,0.425041778 0.0294117647,0.444811163 0.0196078431,0.464580548 C0.0196078431,0.484349933 0.00980392157,0.504119318 0.00980392157,0.523888703 C0.00980392157,0.533773396 0,0.553542781 0,0.573312166 L0,0.602966243 L0,12.0099014 C0,12.3459809 0.264705882,12.6128676 0.598039216,12.6128676 L19.4019608,12.6128676 C19.7352941,12.6128676 20,12.3459809 20,12.0099014 L20,0.602966243 L20,0.573312166 Z M17.7254902,1.20593249 L10,7.58155916 L2.2745098,1.20593249 L17.7254902,1.20593249 Z M1.19607843,11.4069352 L1.19607843,1.87809158 L9.61764706,8.82703041 C9.7254902,8.91599265 9.8627451,8.96541611 10,8.96541611 C10.1372549,8.96541611 10.2647059,8.91599265 10.3823529,8.82703041 L18.8039216,1.87809158 L18.8039216,11.4069352 L1.19607843,11.4069352 L1.19607843,11.4069352 Z" id="Shape"></path>
                </g>
            </g>
        </g>
    </g>
</svg>